INDEX VERSION 1.130+C:\TalentSprint\FSD\fsd53\Adv.java\Workspace\.metadata\.plugins\org.eclipse.jdt.core
2066830214.index
1221207332.index
411227453.index
1961815414.index
2844002509.index
3034561554.index
3940102336.index
626259824.index
3040837599.index
374256412.index
3644761064.index
2419884404.index
794795155.index
164051018.index
166540802.index
2647541280.index
2006718424.index
2064173017.index
2542825910.index
28264183.index
1946725198.index
4135958314.index
552388397.index
3152306676.index
460872712.index
103378668.index
1738905559.index
3126533609.index
3431451117.index
1276317134.index
2507423472.index
2680905015.index
3348520720.index
4138326577.index
93144264.index
895354549.index
3819993044.index
1956904976.index
674573568.index
2889170302.index
2662685956.index
2885606711.index
4259073463.index
764773389.index
1083303891.index
2256035179.index
542153213.index
1117860125.index
3020016564.index
2205283528.index
